[
  {
    "cmd": [
      "vpython3",
      "-u",
      "RECIPE_MODULE[recipe_engine::file]/resources/fileutil.py",
      "--json-output",
      "/path/to/tmp/json",
      "compute_hash",
      "RECIPE_REPO[infra]",
      "recipes/recipe_modules/support_3pp",
      "recipes/recipes/3pp.py",
      "infra/tools/dockerbuild"
    ],
    "infra_step": true,
    "name": "compute recipe file hash",
    "~followup_annotations": [
      "@@@STEP_TEXT@Hash calculated: deadbeef@@@"
    ]
  },
  {
    "cmd": [
      "echo",
      "3pp"
    ],
    "env": {
      "CIPD_CACHE_DIR": "[CLEANUP]/tmp_tmp_1"
    },
    "name": "echo package_prefix"
  },
  {
    "cmd": [
      "vpython3",
      "-u",
      "RECIPE_MODULE[recipe_engine::file]/resources/fileutil.py",
      "--json-output",
      "/path/to/tmp/json",
      "glob",
      "[CACHE]/builder/package_repo",
      "**/3pp.pb"
    ],
    "env": {
      "CIPD_CACHE_DIR": "[CLEANUP]/tmp_tmp_1"
    },
    "infra_step": true,
    "name": "find package specs",
    "~followup_annotations": [
      "@@@STEP_LOG_LINE@glob@[CACHE]/builder/package_repo/dir_build_tools/self_dependency/3pp.pb@@@",
      "@@@STEP_LOG_END@glob@@@"
    ]
  },
  {
    "cmd": [],
    "name": "load package specs"
  },
  {
    "cmd": [
      "vpython3",
      "-u",
      "RECIPE_MODULE[recipe_engine::file]/resources/fileutil.py",
      "--json-output",
      "/path/to/tmp/json",
      "copy",
      "[CACHE]/builder/package_repo/dir_build_tools/self_dependency/3pp.pb",
      "/path/to/tmp/"
    ],
    "env": {
      "CIPD_CACHE_DIR": "[CLEANUP]/tmp_tmp_1"
    },
    "infra_step": true,
    "name": "load package specs.read 'dir_build_tools/self_dependency/3pp.pb'",
    "~followup_annotations": [
      "@@@STEP_NEST_LEVEL@1@@@",
      "@@@STEP_LOG_LINE@3pp.pb@@@@",
      "@@@STEP_LOG_LINE@3pp.pb@  create {@@@",
      "@@@STEP_LOG_LINE@3pp.pb@    source { script { name: \"fetch.py\" } }@@@",
      "@@@STEP_LOG_LINE@3pp.pb@  }@@@",
      "@@@STEP_LOG_LINE@3pp.pb@  create {@@@",
      "@@@STEP_LOG_LINE@3pp.pb@    platform_re: \"linux-arm.*\"@@@",
      "@@@STEP_LOG_LINE@3pp.pb@    build { tool: \"tools/self_dependency\" }@@@",
      "@@@STEP_LOG_LINE@3pp.pb@  }@@@",
      "@@@STEP_LOG_LINE@3pp.pb@  upload { pkg_prefix: \"tools\" }@@@",
      "@@@STEP_LOG_LINE@3pp.pb@  @@@",
      "@@@STEP_LOG_END@3pp.pb@@@"
    ]
  },
  {
    "cmd": [
      "vpython3",
      "-u",
      "RECIPE_MODULE[recipe_engine::file]/resources/fileutil.py",
      "--json-output",
      "/path/to/tmp/json",
      "compute_hash",
      "[START_DIR]",
      "../[CACHE]/builder/package_repo/dir_build_tools/self_dependency"
    ],
    "env": {
      "CIPD_CACHE_DIR": "[CLEANUP]/tmp_tmp_1"
    },
    "infra_step": true,
    "name": "load package specs.Compute hash for 'tools/self_dependency'",
    "~followup_annotations": [
      "@@@STEP_NEST_LEVEL@1@@@",
      "@@@STEP_TEXT@Hash calculated: deadbeef@@@"
    ]
  },
  {
    "cmd": [],
    "name": "compute build plan"
  },
  {
    "cmd": [],
    "name": "building tools/self_dependency"
  },
  {
    "cmd": [
      "vpython3",
      "-u",
      "[CACHE]/builder/package_repo/dir_build_tools/self_dependency/fetch.py",
      "latest"
    ],
    "env": {
      "CIPD_CACHE_DIR": "[CLEANUP]/tmp_tmp_1",
      "GOARCH": "amd64",
      "GOOS": "linux",
      "_3PP_CIPD_PACKAGE_NAME": "tools/self_dependency",
      "_3PP_PLATFORM": "linux-amd64",
      "_3PP_TOOL_PLATFORM": "linux-amd64"
    },
    "name": "building tools/self_dependency.fetch.py latest",
    "~followup_annotations": [
      "@@@STEP_NEST_LEVEL@1@@@",
      "@@@STEP_TEXT@resolved version: 2.0.0@@@"
    ]
  },
  {
    "cmd": [
      "cipd",
      "describe",
      "3pp/tools/self_dependency/linux-amd64",
      "-version",
      "version:2@2.0.0",
      "-json-output",
      "/path/to/tmp/json"
    ],
    "env": {
      "CIPD_CACHE_DIR": "[CLEANUP]/tmp_tmp_1",
      "GOARCH": "amd64",
      "GOOS": "linux",
      "_3PP_CIPD_PACKAGE_NAME": "tools/self_dependency",
      "_3PP_PLATFORM": "linux-amd64",
      "_3PP_TOOL_PLATFORM": "linux-amd64"
    },
    "name": "building tools/self_dependency.cipd describe 3pp/tools/self_dependency/linux-amd64",
    "~followup_annotations": [
      "@@@STEP_NEST_LEVEL@1@@@",
      "@@@STEP_TEXT@tag 'version:2@2.0.0' not found@@@",
      "@@@STEP_LOG_LINE@json.output@{@@@",
      "@@@STEP_LOG_LINE@json.output@  \"error\": \"no such tag\", @@@",
      "@@@STEP_LOG_LINE@json.output@  \"result\": null@@@",
      "@@@STEP_LOG_LINE@json.output@}@@@",
      "@@@STEP_LOG_END@json.output@@@"
    ]
  },
  {
    "cmd": [
      "vpython3",
      "-u",
      "RECIPE_MODULE[recipe_engine::file]/resources/fileutil.py",
      "--json-output",
      "/path/to/tmp/json",
      "ensure-directory",
      "--mode",
      "0777",
      "[START_DIR]/3pp/wd/tools/self_dependency/linux-amd64/2.0.0"
    ],
    "env": {
      "CIPD_CACHE_DIR": "[CLEANUP]/tmp_tmp_1",
      "GOARCH": "amd64",
      "GOOS": "linux",
      "_3PP_CIPD_PACKAGE_NAME": "tools/self_dependency",
      "_3PP_PLATFORM": "linux-amd64",
      "_3PP_TOOL_PLATFORM": "linux-amd64",
      "_3PP_VERSION": "2.0.0"
    },
    "infra_step": true,
    "name": "building tools/self_dependency.mkdir -p [workdir]",
    "~followup_annotations": [
      "@@@STEP_NEST_LEVEL@1@@@"
    ]
  },
  {
    "cmd": [],
    "name": "building tools/self_dependency.fetch sources",
    "~followup_annotations": [
      "@@@STEP_NEST_LEVEL@1@@@"
    ]
  },
  {
    "cmd": [
      "vpython3",
      "-u",
      "RECIPE_MODULE[recipe_engine::file]/resources/fileutil.py",
      "--json-output",
      "/path/to/tmp/json",
      "ensure-directory",
      "--mode",
      "0777",
      "[START_DIR]/3pp/wd/tools/self_dependency/linux-amd64/2.0.0/checkout"
    ],
    "env": {
      "CIPD_CACHE_DIR": "[CLEANUP]/tmp_tmp_1",
      "GOARCH": "amd64",
      "GOOS": "linux",
      "_3PP_CIPD_PACKAGE_NAME": "tools/self_dependency",
      "_3PP_PLATFORM": "linux-amd64",
      "_3PP_TOOL_PLATFORM": "linux-amd64",
      "_3PP_VERSION": "2.0.0"
    },
    "infra_step": true,
    "name": "building tools/self_dependency.fetch sources.mkdir -p [workdir]/checkout/",
    "~followup_annotations": [
      "@@@STEP_NEST_LEVEL@2@@@"
    ]
  },
  {
    "cmd": [
      "cipd",
      "describe",
      "3pp/sources/script/tools/self_dependency/linux-amd64",
      "-version",
      "version:2@2.0.0",
      "-json-output",
      "/path/to/tmp/json"
    ],
    "env": {
      "CIPD_CACHE_DIR": "[CLEANUP]/tmp_tmp_1",
      "GOARCH": "amd64",
      "GOOS": "linux",
      "_3PP_CIPD_PACKAGE_NAME": "tools/self_dependency",
      "_3PP_PLATFORM": "linux-amd64",
      "_3PP_TOOL_PLATFORM": "linux-amd64",
      "_3PP_VERSION": "2.0.0"
    },
    "name": "building tools/self_dependency.fetch sources.cipd describe 3pp/sources/script/tools/self_dependency/linux-amd64",
    "~followup_annotations": [
      "@@@STEP_NEST_LEVEL@2@@@",
      "@@@STEP_TEXT@tag 'version:2@2.0.0' not found@@@",
      "@@@STEP_LOG_LINE@json.output@{@@@",
      "@@@STEP_LOG_LINE@json.output@  \"error\": \"no such tag\", @@@",
      "@@@STEP_LOG_LINE@json.output@  \"result\": null@@@",
      "@@@STEP_LOG_LINE@json.output@}@@@",
      "@@@STEP_LOG_END@json.output@@@"
    ]
  },
  {
    "cmd": [
      "vpython3",
      "-u",
      "[CACHE]/builder/package_repo/dir_build_tools/self_dependency/fetch.py",
      "get_url"
    ],
    "env": {
      "CIPD_CACHE_DIR": "[CLEANUP]/tmp_tmp_1",
      "GOARCH": "amd64",
      "GOOS": "linux",
      "_3PP_CIPD_PACKAGE_NAME": "tools/self_dependency",
      "_3PP_PLATFORM": "linux-amd64",
      "_3PP_TOOL_PLATFORM": "linux-amd64",
      "_3PP_VERSION": "2.0.0"
    },
    "name": "building tools/self_dependency.fetch sources.fetch.py get_url",
    "~followup_annotations": [
      "@@@STEP_NEST_LEVEL@2@@@",
      "@@@STEP_LOG_LINE@json.output@{@@@",
      "@@@STEP_LOG_LINE@json.output@  \"ext\": \".test\", @@@",
      "@@@STEP_LOG_LINE@json.output@  \"name\": [@@@",
      "@@@STEP_LOG_LINE@json.output@    \"test_source\"@@@",
      "@@@STEP_LOG_LINE@json.output@  ], @@@",
      "@@@STEP_LOG_LINE@json.output@  \"url\": [@@@",
      "@@@STEP_LOG_LINE@json.output@    \"https://some.internet.example.com/tools/self_dependency\"@@@",
      "@@@STEP_LOG_LINE@json.output@  ]@@@",
      "@@@STEP_LOG_LINE@json.output@}@@@",
      "@@@STEP_LOG_END@json.output@@@"
    ]
  },
  {
    "cmd": [
      "vpython3",
      "-u",
      "RECIPE_MODULE[recipe_engine::url]/resources/pycurl.py",
      "--url",
      "https://some.internet.example.com/tools/self_dependency",
      "--status-json",
      "/path/to/tmp/json",
      "--outfile",
      "[START_DIR]/3pp/wd/tools/self_dependency/linux-amd64/2.0.0/checkout/test_source"
    ],
    "env": {
      "CIPD_CACHE_DIR": "[CLEANUP]/tmp_tmp_1",
      "GOARCH": "amd64",
      "GOOS": "linux",
      "_3PP_CIPD_PACKAGE_NAME": "tools/self_dependency",
      "_3PP_PLATFORM": "linux-amd64",
      "_3PP_TOOL_PLATFORM": "linux-amd64",
      "_3PP_VERSION": "2.0.0"
    },
    "name": "building tools/self_dependency.fetch sources.GET https://some.internet.example.com/tools/self_dependency",
    "~followup_annotations": [
      "@@@STEP_NEST_LEVEL@2@@@"
    ]
  },
  {
    "cmd": [
      "cipd",
      "pkg-build",
      "-pkg-def",
      "{\"data\": [{\"dir\": \".\", \"exclude\": []}], \"install_mode\": \"copy\", \"package\": \"3pp/sources/script/tools/self_dependency/linux-amd64\", \"preserve_writable\": true, \"root\": \"[START_DIR]/3pp/wd/tools/self_dependency/linux-amd64/2.0.0/checkout\"}",
      "-out",
      "[CLEANUP]/tmp_tmp_2",
      "-hash-algo",
      "sha256",
      "-json-output",
      "/path/to/tmp/json"
    ],
    "env": {
      "CIPD_CACHE_DIR": "[CLEANUP]/tmp_tmp_1",
      "GOARCH": "amd64",
      "GOOS": "linux",
      "_3PP_CIPD_PACKAGE_NAME": "tools/self_dependency",
      "_3PP_PLATFORM": "linux-amd64",
      "_3PP_TOOL_PLATFORM": "linux-amd64",
      "_3PP_VERSION": "2.0.0"
    },
    "name": "building tools/self_dependency.fetch sources.build 3pp/sources/script/tools/self_dependency/linux-amd64",
    "~followup_annotations": [
      "@@@STEP_NEST_LEVEL@2@@@",
      "@@@STEP_LOG_LINE@json.output@{@@@",
      "@@@STEP_LOG_LINE@json.output@  \"result\": {@@@",
      "@@@STEP_LOG_LINE@json.output@    \"instance_id\": \"40-chars-fake-of-the-package-instance_id\", @@@",
      "@@@STEP_LOG_LINE@json.output@    \"package\": \"3pp/sources/script/tools/self_dependency/linux-amd64\"@@@",
      "@@@STEP_LOG_LINE@json.output@  }@@@",
      "@@@STEP_LOG_LINE@json.output@}@@@",
      "@@@STEP_LOG_END@json.output@@@"
    ]
  },
  {
    "cmd": [
      "vpython3",
      "-u",
      "RECIPE_MODULE[recipe_engine::file]/resources/fileutil.py",
      "--json-output",
      "/path/to/tmp/json",
      "ensure-directory",
      "--mode",
      "0777",
      "[CACHE]/3pp_cipd/3pp/sources/script/tools/self_dependency/linux-amd64"
    ],
    "env": {
      "CIPD_CACHE_DIR": "[CLEANUP]/tmp_tmp_1",
      "GOARCH": "amd64",
      "GOOS": "linux",
      "_3PP_CIPD_PACKAGE_NAME": "tools/self_dependency",
      "_3PP_PLATFORM": "linux-amd64",
      "_3PP_TOOL_PLATFORM": "linux-amd64",
      "_3PP_VERSION": "2.0.0"
    },
    "infra_step": true,
    "name": "building tools/self_dependency.fetch sources.ensure cipd pkg cache exists",
    "~followup_annotations": [
      "@@@STEP_NEST_LEVEL@2@@@"
    ]
  },
  {
    "cmd": [
      "vpython3",
      "-u",
      "RECIPE_MODULE[recipe_engine::file]/resources/fileutil.py",
      "--json-output",
      "/path/to/tmp/json",
      "move",
      "[CLEANUP]/tmp_tmp_2",
      "[CACHE]/3pp_cipd/3pp/sources/script/tools/self_dependency/linux-amd64/40-chars-fake-of-the-package-instance_id"
    ],
    "env": {
      "CIPD_CACHE_DIR": "[CLEANUP]/tmp_tmp_1",
      "GOARCH": "amd64",
      "GOOS": "linux",
      "_3PP_CIPD_PACKAGE_NAME": "tools/self_dependency",
      "_3PP_PLATFORM": "linux-amd64",
      "_3PP_TOOL_PLATFORM": "linux-amd64",
      "_3PP_VERSION": "2.0.0"
    },
    "infra_step": true,
    "name": "building tools/self_dependency.fetch sources.mv built cipd pkg to cache",
    "~followup_annotations": [
      "@@@STEP_NEST_LEVEL@2@@@"
    ]
  },
  {
    "cmd": [],
    "name": "building tools/self_dependency.fetch sources.upload source to cipd",
    "~followup_annotations": [
      "@@@STEP_NEST_LEVEL@2@@@"
    ]
  },
  {
    "cmd": [
      "cipd",
      "describe",
      "3pp/sources/script/tools/self_dependency/linux-amd64",
      "-version",
      "version:2@2.0.0",
      "-json-output",
      "/path/to/tmp/json"
    ],
    "env": {
      "CIPD_CACHE_DIR": "[CLEANUP]/tmp_tmp_1",
      "GOARCH": "amd64",
      "GOOS": "linux",
      "_3PP_CIPD_PACKAGE_NAME": "tools/self_dependency",
      "_3PP_PLATFORM": "linux-amd64",
      "_3PP_TOOL_PLATFORM": "linux-amd64",
      "_3PP_VERSION": "2.0.0"
    },
    "name": "building tools/self_dependency.fetch sources.upload source to cipd.cipd describe 3pp/sources/script/tools/self_dependency/linux-amd64",
    "~followup_annotations": [
      "@@@STEP_NEST_LEVEL@3@@@",
      "@@@STEP_TEXT@tag 'version:2@2.0.0' not found@@@",
      "@@@STEP_LOG_LINE@json.output@{@@@",
      "@@@STEP_LOG_LINE@json.output@  \"error\": \"no such tag\", @@@",
      "@@@STEP_LOG_LINE@json.output@  \"result\": null@@@",
      "@@@STEP_LOG_LINE@json.output@}@@@",
      "@@@STEP_LOG_END@json.output@@@"
    ]
  },
  {
    "cmd": [
      "cipd",
      "pkg-register",
      "[CACHE]/3pp_cipd/3pp/sources/script/tools/self_dependency/linux-amd64/40-chars-fake-of-the-package-instance_id",
      "-tag",
      "version:2@2.0.0",
      "-json-output",
      "/path/to/tmp/json"
    ],
    "env": {
      "CIPD_CACHE_DIR": "[CLEANUP]/tmp_tmp_1",
      "GOARCH": "amd64",
      "GOOS": "linux",
      "_3PP_CIPD_PACKAGE_NAME": "tools/self_dependency",
      "_3PP_PLATFORM": "linux-amd64",
      "_3PP_TOOL_PLATFORM": "linux-amd64",
      "_3PP_VERSION": "2.0.0"
    },
    "name": "building tools/self_dependency.fetch sources.upload source to cipd.register 3pp/sources/script/tools/self_dependency/linux-amd64",
    "~followup_annotations": [
      "@@@STEP_NEST_LEVEL@3@@@",
      "@@@STEP_LOG_LINE@json.output@{@@@",
      "@@@STEP_LOG_LINE@json.output@  \"result\": {@@@",
      "@@@STEP_LOG_LINE@json.output@    \"instance_id\": \"40-chars-fake-of-the-package-instance_id\", @@@",
      "@@@STEP_LOG_LINE@json.output@    \"package\": \"3pp/sources/script/tools/self_dependency/linux-amd64\"@@@",
      "@@@STEP_LOG_LINE@json.output@  }@@@",
      "@@@STEP_LOG_LINE@json.output@}@@@",
      "@@@STEP_LOG_END@json.output@@@",
      "@@@STEP_LINK@3pp/sources/script/tools/self_dependency/linux-amd64@https://chrome-infra-packages.appspot.com/p/3pp/sources/script/tools/self_dependency/linux-amd64/+/40-chars-fake-of-the-package-instance_id@@@"
    ]
  },
  {
    "cmd": [
      "vpython3",
      "-u",
      "RECIPE_MODULE[recipe_engine::file]/resources/fileutil.py",
      "--json-output",
      "/path/to/tmp/json",
      "listdir",
      "[START_DIR]/3pp/wd/tools/self_dependency/linux-amd64/2.0.0/checkout",
      "--recursive"
    ],
    "env": {
      "CIPD_CACHE_DIR": "[CLEANUP]/tmp_tmp_1",
      "GOARCH": "amd64",
      "GOOS": "linux",
      "_3PP_CIPD_PACKAGE_NAME": "tools/self_dependency",
      "_3PP_PLATFORM": "linux-amd64",
      "_3PP_TOOL_PLATFORM": "linux-amd64",
      "_3PP_VERSION": "2.0.0"
    },
    "infra_step": true,
    "name": "building tools/self_dependency.List files to be packaged",
    "~followup_annotations": [
      "@@@STEP_NEST_LEVEL@1@@@",
      "@@@STEP_LOG_END@listdir@@@"
    ]
  },
  {
    "cmd": [
      "cipd",
      "pkg-build",
      "-pkg-def",
      "{\"data\": [{\"dir\": \".\", \"exclude\": []}], \"install_mode\": \"copy\", \"package\": \"3pp/tools/self_dependency/linux-amd64\", \"root\": \"[START_DIR]/3pp/wd/tools/self_dependency/linux-amd64/2.0.0/checkout\"}",
      "-out",
      "[CLEANUP]/tmp_tmp_3",
      "-hash-algo",
      "sha256",
      "-json-output",
      "/path/to/tmp/json"
    ],
    "env": {
      "CIPD_CACHE_DIR": "[CLEANUP]/tmp_tmp_1",
      "GOARCH": "amd64",
      "GOOS": "linux",
      "_3PP_CIPD_PACKAGE_NAME": "tools/self_dependency",
      "_3PP_PLATFORM": "linux-amd64",
      "_3PP_TOOL_PLATFORM": "linux-amd64",
      "_3PP_VERSION": "2.0.0"
    },
    "name": "building tools/self_dependency.build 3pp/tools/self_dependency/linux-amd64",
    "~followup_annotations": [
      "@@@STEP_NEST_LEVEL@1@@@",
      "@@@STEP_LOG_LINE@json.output@{@@@",
      "@@@STEP_LOG_LINE@json.output@  \"result\": {@@@",
      "@@@STEP_LOG_LINE@json.output@    \"instance_id\": \"40-chars-fake-of-the-package-instance_id\", @@@",
      "@@@STEP_LOG_LINE@json.output@    \"package\": \"3pp/tools/self_dependency/linux-amd64\"@@@",
      "@@@STEP_LOG_LINE@json.output@  }@@@",
      "@@@STEP_LOG_LINE@json.output@}@@@",
      "@@@STEP_LOG_END@json.output@@@"
    ]
  },
  {
    "cmd": [
      "vpython3",
      "-u",
      "RECIPE_MODULE[recipe_engine::file]/resources/fileutil.py",
      "--json-output",
      "/path/to/tmp/json",
      "ensure-directory",
      "--mode",
      "0777",
      "[CACHE]/3pp_cipd/3pp/tools/self_dependency/linux-amd64"
    ],
    "env": {
      "CIPD_CACHE_DIR": "[CLEANUP]/tmp_tmp_1",
      "GOARCH": "amd64",
      "GOOS": "linux",
      "_3PP_CIPD_PACKAGE_NAME": "tools/self_dependency",
      "_3PP_PLATFORM": "linux-amd64",
      "_3PP_TOOL_PLATFORM": "linux-amd64",
      "_3PP_VERSION": "2.0.0"
    },
    "infra_step": true,
    "name": "building tools/self_dependency.ensure cipd pkg cache exists",
    "~followup_annotations": [
      "@@@STEP_NEST_LEVEL@1@@@"
    ]
  },
  {
    "cmd": [
      "vpython3",
      "-u",
      "RECIPE_MODULE[recipe_engine::file]/resources/fileutil.py",
      "--json-output",
      "/path/to/tmp/json",
      "move",
      "[CLEANUP]/tmp_tmp_3",
      "[CACHE]/3pp_cipd/3pp/tools/self_dependency/linux-amd64/40-chars-fake-of-the-package-instance_id"
    ],
    "env": {
      "CIPD_CACHE_DIR": "[CLEANUP]/tmp_tmp_1",
      "GOARCH": "amd64",
      "GOOS": "linux",
      "_3PP_CIPD_PACKAGE_NAME": "tools/self_dependency",
      "_3PP_PLATFORM": "linux-amd64",
      "_3PP_TOOL_PLATFORM": "linux-amd64",
      "_3PP_VERSION": "2.0.0"
    },
    "infra_step": true,
    "name": "building tools/self_dependency.mv built cipd pkg to cache",
    "~followup_annotations": [
      "@@@STEP_NEST_LEVEL@1@@@"
    ]
  },
  {
    "cmd": [],
    "name": "building tools/self_dependency.do upload",
    "~followup_annotations": [
      "@@@STEP_NEST_LEVEL@1@@@",
      "@@@STEP_LINK@40-chars-fake-of-the-package-instance_id@https://chrome-infra-packages.appspot.com/p/3pp/tools/self_dependency/linux-amd64/+/40-chars-fake-of-the-package-instance_id@@@"
    ]
  },
  {
    "cmd": [
      "cipd",
      "describe",
      "3pp/tools/self_dependency/linux-amd64",
      "-version",
      "version:2@2.0.0",
      "-json-output",
      "/path/to/tmp/json"
    ],
    "env": {
      "CIPD_CACHE_DIR": "[CLEANUP]/tmp_tmp_1",
      "GOARCH": "amd64",
      "GOOS": "linux",
      "_3PP_CIPD_PACKAGE_NAME": "tools/self_dependency",
      "_3PP_PLATFORM": "linux-amd64",
      "_3PP_TOOL_PLATFORM": "linux-amd64",
      "_3PP_VERSION": "2.0.0"
    },
    "name": "building tools/self_dependency.do upload.cipd describe 3pp/tools/self_dependency/linux-amd64",
    "~followup_annotations": [
      "@@@STEP_NEST_LEVEL@2@@@",
      "@@@STEP_TEXT@tag 'version:2@2.0.0' not found@@@",
      "@@@STEP_LOG_LINE@json.output@{@@@",
      "@@@STEP_LOG_LINE@json.output@  \"error\": \"no such tag\", @@@",
      "@@@STEP_LOG_LINE@json.output@  \"result\": null@@@",
      "@@@STEP_LOG_LINE@json.output@}@@@",
      "@@@STEP_LOG_END@json.output@@@"
    ]
  },
  {
    "cmd": [
      "cipd",
      "pkg-register",
      "[CACHE]/3pp_cipd/3pp/tools/self_dependency/linux-amd64/40-chars-fake-of-the-package-instance_id",
      "-ref",
      "latest",
      "-tag",
      "3pp_ecosystem_hash:5428f29eb8e0873b4b5fd4ad30843f6b867b8ca49f9f22caaab8222bc4ef8841",
      "-tag",
      "version:2@2.0.0",
      "-json-output",
      "/path/to/tmp/json"
    ],
    "env": {
      "CIPD_CACHE_DIR": "[CLEANUP]/tmp_tmp_1",
      "GOARCH": "amd64",
      "GOOS": "linux",
      "_3PP_CIPD_PACKAGE_NAME": "tools/self_dependency",
      "_3PP_PLATFORM": "linux-amd64",
      "_3PP_TOOL_PLATFORM": "linux-amd64",
      "_3PP_VERSION": "2.0.0"
    },
    "name": "building tools/self_dependency.do upload.register 3pp/tools/self_dependency/linux-amd64",
    "~followup_annotations": [
      "@@@STEP_NEST_LEVEL@2@@@",
      "@@@STEP_LOG_LINE@json.output@{@@@",
      "@@@STEP_LOG_LINE@json.output@  \"result\": {@@@",
      "@@@STEP_LOG_LINE@json.output@    \"instance_id\": \"40-chars-fake-of-the-package-instance_id\", @@@",
      "@@@STEP_LOG_LINE@json.output@    \"package\": \"3pp/tools/self_dependency/linux-amd64\"@@@",
      "@@@STEP_LOG_LINE@json.output@  }@@@",
      "@@@STEP_LOG_LINE@json.output@}@@@",
      "@@@STEP_LOG_END@json.output@@@",
      "@@@STEP_LINK@3pp/tools/self_dependency/linux-amd64@https://chrome-infra-packages.appspot.com/p/3pp/tools/self_dependency/linux-amd64/+/40-chars-fake-of-the-package-instance_id@@@"
    ]
  },
  {
    "cmd": [
      "vpython3",
      "-u",
      "RECIPE_MODULE[recipe_engine::file]/resources/fileutil.py",
      "--json-output",
      "/path/to/tmp/json",
      "file_hash",
      "[CACHE]/3pp_cipd/3pp/tools/self_dependency/linux-amd64/40-chars-fake-of-the-package-instance_id"
    ],
    "env": {
      "CIPD_CACHE_DIR": "[CLEANUP]/tmp_tmp_1",
      "GOARCH": "amd64",
      "GOOS": "linux",
      "_3PP_CIPD_PACKAGE_NAME": "tools/self_dependency",
      "_3PP_PLATFORM": "linux-amd64",
      "_3PP_TOOL_PLATFORM": "linux-amd64",
      "_3PP_VERSION": "2.0.0"
    },
    "infra_step": true,
    "name": "building tools/self_dependency.do upload.Compute file hash",
    "~followup_annotations": [
      "@@@STEP_NEST_LEVEL@2@@@",
      "@@@STEP_TEXT@Hash calculated: deadbeef@@@"
    ]
  },
  {
    "cmd": [
      "cipd",
      "ensure",
      "-root",
      "[START_DIR]/reporter",
      "-ensure-file",
      "infra/tools/security/provenance_broker/${platform} git_revision:d3cf3b0144447a77fd79c84fe8500dfe993ef602",
      "-max-threads",
      "0",
      "-json-output",
      "/path/to/tmp/json"
    ],
    "env": {
      "CIPD_CACHE_DIR": "[CLEANUP]/tmp_tmp_1",
      "GOARCH": "amd64",
      "GOOS": "linux",
      "_3PP_CIPD_PACKAGE_NAME": "tools/self_dependency",
      "_3PP_PLATFORM": "linux-amd64",
      "_3PP_TOOL_PLATFORM": "linux-amd64",
      "_3PP_VERSION": "2.0.0"
    },
    "name": "building tools/self_dependency.do upload.ensure_installed",
    "~followup_annotations": [
      "@@@STEP_NEST_LEVEL@2@@@",
      "@@@STEP_LOG_LINE@json.output@{@@@",
      "@@@STEP_LOG_LINE@json.output@  \"result\": {@@@",
      "@@@STEP_LOG_LINE@json.output@    \"\": [@@@",
      "@@@STEP_LOG_LINE@json.output@      {@@@",
      "@@@STEP_LOG_LINE@json.output@        \"instance_id\": \"resolved-instance_id-of-git_revision:d3c\", @@@",
      "@@@STEP_LOG_LINE@json.output@        \"package\": \"infra/tools/security/provenance_broker/resolved-platform\"@@@",
      "@@@STEP_LOG_LINE@json.output@      }@@@",
      "@@@STEP_LOG_LINE@json.output@    ]@@@",
      "@@@STEP_LOG_LINE@json.output@  }@@@",
      "@@@STEP_LOG_LINE@json.output@}@@@",
      "@@@STEP_LOG_END@json.output@@@"
    ]
  },
  {
    "cmd": [
      "[START_DIR]/reporter/snoopy_broker",
      "-report-cipd",
      "-digest",
      "deadbeef",
      "-pkg-name",
      "3pp/tools/self_dependency/linux-amd64",
      "-iid",
      "40-chars-fake-of-the-package-instance_id"
    ],
    "env": {
      "CIPD_CACHE_DIR": "[CLEANUP]/tmp_tmp_1",
      "GOARCH": "amd64",
      "GOOS": "linux",
      "_3PP_CIPD_PACKAGE_NAME": "tools/self_dependency",
      "_3PP_PLATFORM": "linux-amd64",
      "_3PP_TOOL_PLATFORM": "linux-amd64",
      "_3PP_VERSION": "2.0.0"
    },
    "name": "building tools/self_dependency.do upload.snoop: report_cipd",
    "~followup_annotations": [
      "@@@STEP_NEST_LEVEL@2@@@"
    ]
  },
  {
    "cmd": [],
    "name": "building tools/self_dependency (2)"
  },
  {
    "cmd": [
      "vpython3",
      "-u",
      "[CACHE]/builder/package_repo/dir_build_tools/self_dependency/fetch.py",
      "latest"
    ],
    "env": {
      "CIPD_CACHE_DIR": "[CLEANUP]/tmp_tmp_1",
      "GOARCH": "arm64",
      "GOOS": "linux",
      "_3PP_CIPD_PACKAGE_NAME": "tools/self_dependency",
      "_3PP_PLATFORM": "linux-arm64",
      "_3PP_TOOL_PLATFORM": "linux-amd64"
    },
    "name": "building tools/self_dependency (2).fetch.py latest",
    "~followup_annotations": [
      "@@@STEP_NEST_LEVEL@1@@@",
      "@@@STEP_TEXT@resolved version: 2.0.0@@@"
    ]
  },
  {
    "cmd": [
      "cipd",
      "describe",
      "3pp/tools/self_dependency/linux-arm64",
      "-version",
      "version:2@2.0.0",
      "-json-output",
      "/path/to/tmp/json"
    ],
    "env": {
      "CIPD_CACHE_DIR": "[CLEANUP]/tmp_tmp_1",
      "GOARCH": "arm64",
      "GOOS": "linux",
      "_3PP_CIPD_PACKAGE_NAME": "tools/self_dependency",
      "_3PP_PLATFORM": "linux-arm64",
      "_3PP_TOOL_PLATFORM": "linux-amd64"
    },
    "name": "building tools/self_dependency (2).cipd describe 3pp/tools/self_dependency/linux-arm64",
    "~followup_annotations": [
      "@@@STEP_NEST_LEVEL@1@@@",
      "@@@STEP_TEXT@tag 'version:2@2.0.0' not found@@@",
      "@@@STEP_LOG_LINE@json.output@{@@@",
      "@@@STEP_LOG_LINE@json.output@  \"error\": \"no such tag\", @@@",
      "@@@STEP_LOG_LINE@json.output@  \"result\": null@@@",
      "@@@STEP_LOG_LINE@json.output@}@@@",
      "@@@STEP_LOG_END@json.output@@@"
    ]
  },
  {
    "cmd": [
      "vpython3",
      "-u",
      "RECIPE_MODULE[recipe_engine::file]/resources/fileutil.py",
      "--json-output",
      "/path/to/tmp/json",
      "ensure-directory",
      "--mode",
      "0777",
      "[START_DIR]/3pp/wd/tools/self_dependency/linux-arm64/2.0.0"
    ],
    "env": {
      "CIPD_CACHE_DIR": "[CLEANUP]/tmp_tmp_1",
      "GOARCH": "arm64",
      "GOOS": "linux",
      "_3PP_CIPD_PACKAGE_NAME": "tools/self_dependency",
      "_3PP_PLATFORM": "linux-arm64",
      "_3PP_TOOL_PLATFORM": "linux-amd64",
      "_3PP_VERSION": "2.0.0"
    },
    "infra_step": true,
    "name": "building tools/self_dependency (2).mkdir -p [workdir]",
    "~followup_annotations": [
      "@@@STEP_NEST_LEVEL@1@@@"
    ]
  },
  {
    "cmd": [],
    "name": "building tools/self_dependency (2).fetch sources",
    "~followup_annotations": [
      "@@@STEP_NEST_LEVEL@1@@@"
    ]
  },
  {
    "cmd": [],
    "name": "building tools/self_dependency (2).fetch sources.installing tools",
    "~followup_annotations": [
      "@@@STEP_NEST_LEVEL@2@@@"
    ]
  },
  {
    "cmd": [
      "cipd",
      "pkg-deploy",
      "[CACHE]/3pp_cipd/3pp/tools/self_dependency/linux-amd64/40-chars-fake-of-the-package-instance_id",
      "-root",
      "[START_DIR]/3pp/wd/tools/self_dependency/linux-arm64/2.0.0/tools_prefix",
      "-json-output",
      "/path/to/tmp/json"
    ],
    "env": {
      "CIPD_CACHE_DIR": "[CLEANUP]/tmp_tmp_1",
      "GOARCH": "arm64",
      "GOOS": "linux",
      "_3PP_CIPD_PACKAGE_NAME": "tools/self_dependency",
      "_3PP_PLATFORM": "linux-arm64",
      "_3PP_TOOL_PLATFORM": "linux-amd64",
      "_3PP_VERSION": "2.0.0"
    },
    "name": "building tools/self_dependency (2).fetch sources.installing tools.cipd pkg-deploy [CACHE]/3pp_cipd/3pp/tools/self_dependency/linux-amd64/40-chars-fake-of-the-package-instance_id",
    "~followup_annotations": [
      "@@@STEP_NEST_LEVEL@3@@@",
      "@@@STEP_LOG_LINE@json.output@{@@@",
      "@@@STEP_LOG_LINE@json.output@  \"result\": {@@@",
      "@@@STEP_LOG_LINE@json.output@    \"instance_id\": \"resolved-instance_id-of-version/of/40-ch\", @@@",
      "@@@STEP_LOG_LINE@json.output@    \"package\": \"pkg/name/of/40-chars-fake-of-the-package-instance_id\"@@@",
      "@@@STEP_LOG_LINE@json.output@  }@@@",
      "@@@STEP_LOG_LINE@json.output@}@@@",
      "@@@STEP_LOG_END@json.output@@@"
    ]
  },
  {
    "cmd": [
      "vpython3",
      "-u",
      "RECIPE_MODULE[recipe_engine::file]/resources/fileutil.py",
      "--json-output",
      "/path/to/tmp/json",
      "ensure-directory",
      "--mode",
      "0777",
      "[START_DIR]/3pp/wd/tools/self_dependency/linux-arm64/2.0.0/checkout"
    ],
    "env": {
      "CIPD_CACHE_DIR": "[CLEANUP]/tmp_tmp_1",
      "GOARCH": "arm64",
      "GOOS": "linux",
      "_3PP_CIPD_PACKAGE_NAME": "tools/self_dependency",
      "_3PP_PLATFORM": "linux-arm64",
      "_3PP_TOOL_PLATFORM": "linux-amd64",
      "_3PP_VERSION": "2.0.0"
    },
    "infra_step": true,
    "name": "building tools/self_dependency (2).fetch sources.mkdir -p [workdir]/checkout/",
    "~followup_annotations": [
      "@@@STEP_NEST_LEVEL@2@@@"
    ]
  },
  {
    "cmd": [
      "cipd",
      "describe",
      "3pp/sources/script/tools/self_dependency/linux-arm64",
      "-version",
      "version:2@2.0.0",
      "-json-output",
      "/path/to/tmp/json"
    ],
    "env": {
      "CIPD_CACHE_DIR": "[CLEANUP]/tmp_tmp_1",
      "GOARCH": "arm64",
      "GOOS": "linux",
      "_3PP_CIPD_PACKAGE_NAME": "tools/self_dependency",
      "_3PP_PLATFORM": "linux-arm64",
      "_3PP_TOOL_PLATFORM": "linux-amd64",
      "_3PP_VERSION": "2.0.0"
    },
    "name": "building tools/self_dependency (2).fetch sources.cipd describe 3pp/sources/script/tools/self_dependency/linux-arm64",
    "~followup_annotations": [
      "@@@STEP_NEST_LEVEL@2@@@",
      "@@@STEP_TEXT@tag 'version:2@2.0.0' not found@@@",
      "@@@STEP_LOG_LINE@json.output@{@@@",
      "@@@STEP_LOG_LINE@json.output@  \"error\": \"no such tag\", @@@",
      "@@@STEP_LOG_LINE@json.output@  \"result\": null@@@",
      "@@@STEP_LOG_LINE@json.output@}@@@",
      "@@@STEP_LOG_END@json.output@@@"
    ]
  },
  {
    "cmd": [
      "vpython3",
      "-u",
      "[CACHE]/builder/package_repo/dir_build_tools/self_dependency/fetch.py",
      "get_url"
    ],
    "env": {
      "CIPD_CACHE_DIR": "[CLEANUP]/tmp_tmp_1",
      "GOARCH": "arm64",
      "GOOS": "linux",
      "_3PP_CIPD_PACKAGE_NAME": "tools/self_dependency",
      "_3PP_PLATFORM": "linux-arm64",
      "_3PP_TOOL_PLATFORM": "linux-amd64",
      "_3PP_VERSION": "2.0.0"
    },
    "name": "building tools/self_dependency (2).fetch sources.fetch.py get_url",
    "~followup_annotations": [
      "@@@STEP_NEST_LEVEL@2@@@",
      "@@@STEP_LOG_LINE@json.output@{@@@",
      "@@@STEP_LOG_LINE@json.output@  \"ext\": \".test\", @@@",
      "@@@STEP_LOG_LINE@json.output@  \"name\": [@@@",
      "@@@STEP_LOG_LINE@json.output@    \"test_source\"@@@",
      "@@@STEP_LOG_LINE@json.output@  ], @@@",
      "@@@STEP_LOG_LINE@json.output@  \"url\": [@@@",
      "@@@STEP_LOG_LINE@json.output@    \"https://some.internet.example.com/tools/self_dependency\"@@@",
      "@@@STEP_LOG_LINE@json.output@  ]@@@",
      "@@@STEP_LOG_LINE@json.output@}@@@",
      "@@@STEP_LOG_END@json.output@@@"
    ]
  },
  {
    "cmd": [
      "vpython3",
      "-u",
      "RECIPE_MODULE[recipe_engine::url]/resources/pycurl.py",
      "--url",
      "https://some.internet.example.com/tools/self_dependency",
      "--status-json",
      "/path/to/tmp/json",
      "--outfile",
      "[START_DIR]/3pp/wd/tools/self_dependency/linux-arm64/2.0.0/checkout/test_source"
    ],
    "env": {
      "CIPD_CACHE_DIR": "[CLEANUP]/tmp_tmp_1",
      "GOARCH": "arm64",
      "GOOS": "linux",
      "_3PP_CIPD_PACKAGE_NAME": "tools/self_dependency",
      "_3PP_PLATFORM": "linux-arm64",
      "_3PP_TOOL_PLATFORM": "linux-amd64",
      "_3PP_VERSION": "2.0.0"
    },
    "name": "building tools/self_dependency (2).fetch sources.GET https://some.internet.example.com/tools/self_dependency",
    "~followup_annotations": [
      "@@@STEP_NEST_LEVEL@2@@@"
    ]
  },
  {
    "cmd": [
      "cipd",
      "pkg-build",
      "-pkg-def",
      "{\"data\": [{\"dir\": \".\", \"exclude\": []}], \"install_mode\": \"copy\", \"package\": \"3pp/sources/script/tools/self_dependency/linux-arm64\", \"preserve_writable\": true, \"root\": \"[START_DIR]/3pp/wd/tools/self_dependency/linux-arm64/2.0.0/checkout\"}",
      "-out",
      "[CLEANUP]/tmp_tmp_4",
      "-hash-algo",
      "sha256",
      "-json-output",
      "/path/to/tmp/json"
    ],
    "env": {
      "CIPD_CACHE_DIR": "[CLEANUP]/tmp_tmp_1",
      "GOARCH": "arm64",
      "GOOS": "linux",
      "_3PP_CIPD_PACKAGE_NAME": "tools/self_dependency",
      "_3PP_PLATFORM": "linux-arm64",
      "_3PP_TOOL_PLATFORM": "linux-amd64",
      "_3PP_VERSION": "2.0.0"
    },
    "name": "building tools/self_dependency (2).fetch sources.build 3pp/sources/script/tools/self_dependency/linux-arm64",
    "~followup_annotations": [
      "@@@STEP_NEST_LEVEL@2@@@",
      "@@@STEP_LOG_LINE@json.output@{@@@",
      "@@@STEP_LOG_LINE@json.output@  \"result\": {@@@",
      "@@@STEP_LOG_LINE@json.output@    \"instance_id\": \"40-chars-fake-of-the-package-instance_id\", @@@",
      "@@@STEP_LOG_LINE@json.output@    \"package\": \"3pp/sources/script/tools/self_dependency/linux-arm64\"@@@",
      "@@@STEP_LOG_LINE@json.output@  }@@@",
      "@@@STEP_LOG_LINE@json.output@}@@@",
      "@@@STEP_LOG_END@json.output@@@"
    ]
  },
  {
    "cmd": [
      "vpython3",
      "-u",
      "RECIPE_MODULE[recipe_engine::file]/resources/fileutil.py",
      "--json-output",
      "/path/to/tmp/json",
      "ensure-directory",
      "--mode",
      "0777",
      "[CACHE]/3pp_cipd/3pp/sources/script/tools/self_dependency/linux-arm64"
    ],
    "env": {
      "CIPD_CACHE_DIR": "[CLEANUP]/tmp_tmp_1",
      "GOARCH": "arm64",
      "GOOS": "linux",
      "_3PP_CIPD_PACKAGE_NAME": "tools/self_dependency",
      "_3PP_PLATFORM": "linux-arm64",
      "_3PP_TOOL_PLATFORM": "linux-amd64",
      "_3PP_VERSION": "2.0.0"
    },
    "infra_step": true,
    "name": "building tools/self_dependency (2).fetch sources.ensure cipd pkg cache exists",
    "~followup_annotations": [
      "@@@STEP_NEST_LEVEL@2@@@"
    ]
  },
  {
    "cmd": [
      "vpython3",
      "-u",
      "RECIPE_MODULE[recipe_engine::file]/resources/fileutil.py",
      "--json-output",
      "/path/to/tmp/json",
      "move",
      "[CLEANUP]/tmp_tmp_4",
      "[CACHE]/3pp_cipd/3pp/sources/script/tools/self_dependency/linux-arm64/40-chars-fake-of-the-package-instance_id"
    ],
    "env": {
      "CIPD_CACHE_DIR": "[CLEANUP]/tmp_tmp_1",
      "GOARCH": "arm64",
      "GOOS": "linux",
      "_3PP_CIPD_PACKAGE_NAME": "tools/self_dependency",
      "_3PP_PLATFORM": "linux-arm64",
      "_3PP_TOOL_PLATFORM": "linux-amd64",
      "_3PP_VERSION": "2.0.0"
    },
    "infra_step": true,
    "name": "building tools/self_dependency (2).fetch sources.mv built cipd pkg to cache",
    "~followup_annotations": [
      "@@@STEP_NEST_LEVEL@2@@@"
    ]
  },
  {
    "cmd": [],
    "name": "building tools/self_dependency (2).fetch sources.upload source to cipd",
    "~followup_annotations": [
      "@@@STEP_NEST_LEVEL@2@@@"
    ]
  },
  {
    "cmd": [
      "cipd",
      "describe",
      "3pp/sources/script/tools/self_dependency/linux-arm64",
      "-version",
      "version:2@2.0.0",
      "-json-output",
      "/path/to/tmp/json"
    ],
    "env": {
      "CIPD_CACHE_DIR": "[CLEANUP]/tmp_tmp_1",
      "GOARCH": "arm64",
      "GOOS": "linux",
      "_3PP_CIPD_PACKAGE_NAME": "tools/self_dependency",
      "_3PP_PLATFORM": "linux-arm64",
      "_3PP_TOOL_PLATFORM": "linux-amd64",
      "_3PP_VERSION": "2.0.0"
    },
    "name": "building tools/self_dependency (2).fetch sources.upload source to cipd.cipd describe 3pp/sources/script/tools/self_dependency/linux-arm64",
    "~followup_annotations": [
      "@@@STEP_NEST_LEVEL@3@@@",
      "@@@STEP_TEXT@tag 'version:2@2.0.0' not found@@@",
      "@@@STEP_LOG_LINE@json.output@{@@@",
      "@@@STEP_LOG_LINE@json.output@  \"error\": \"no such tag\", @@@",
      "@@@STEP_LOG_LINE@json.output@  \"result\": null@@@",
      "@@@STEP_LOG_LINE@json.output@}@@@",
      "@@@STEP_LOG_END@json.output@@@"
    ]
  },
  {
    "cmd": [
      "cipd",
      "pkg-register",
      "[CACHE]/3pp_cipd/3pp/sources/script/tools/self_dependency/linux-arm64/40-chars-fake-of-the-package-instance_id",
      "-tag",
      "version:2@2.0.0",
      "-json-output",
      "/path/to/tmp/json"
    ],
    "env": {
      "CIPD_CACHE_DIR": "[CLEANUP]/tmp_tmp_1",
      "GOARCH": "arm64",
      "GOOS": "linux",
      "_3PP_CIPD_PACKAGE_NAME": "tools/self_dependency",
      "_3PP_PLATFORM": "linux-arm64",
      "_3PP_TOOL_PLATFORM": "linux-amd64",
      "_3PP_VERSION": "2.0.0"
    },
    "name": "building tools/self_dependency (2).fetch sources.upload source to cipd.register 3pp/sources/script/tools/self_dependency/linux-arm64",
    "~followup_annotations": [
      "@@@STEP_NEST_LEVEL@3@@@",
      "@@@STEP_LOG_LINE@json.output@{@@@",
      "@@@STEP_LOG_LINE@json.output@  \"result\": {@@@",
      "@@@STEP_LOG_LINE@json.output@    \"instance_id\": \"40-chars-fake-of-the-package-instance_id\", @@@",
      "@@@STEP_LOG_LINE@json.output@    \"package\": \"3pp/sources/script/tools/self_dependency/linux-arm64\"@@@",
      "@@@STEP_LOG_LINE@json.output@  }@@@",
      "@@@STEP_LOG_LINE@json.output@}@@@",
      "@@@STEP_LOG_END@json.output@@@",
      "@@@STEP_LINK@3pp/sources/script/tools/self_dependency/linux-arm64@https://chrome-infra-packages.appspot.com/p/3pp/sources/script/tools/self_dependency/linux-arm64/+/40-chars-fake-of-the-package-instance_id@@@"
    ]
  },
  {
    "cmd": [
      "vpython3",
      "-u",
      "RECIPE_MODULE[recipe_engine::file]/resources/fileutil.py",
      "--json-output",
      "/path/to/tmp/json",
      "copytree",
      "[CACHE]/builder/package_repo/dir_build_tools/self_dependency",
      "[START_DIR]/3pp/wd/tools/self_dependency/linux-arm64/2.0.0/checkout/.3pp/tools/self_dependency"
    ],
    "env": {
      "CIPD_CACHE_DIR": "[CLEANUP]/tmp_tmp_1",
      "GOARCH": "arm64",
      "GOOS": "linux",
      "_3PP_CIPD_PACKAGE_NAME": "tools/self_dependency",
      "_3PP_PLATFORM": "linux-arm64",
      "_3PP_TOOL_PLATFORM": "linux-amd64",
      "_3PP_VERSION": "2.0.0"
    },
    "infra_step": true,
    "name": "building tools/self_dependency (2).fetch sources.copy package definition tools/self_dependency",
    "~followup_annotations": [
      "@@@STEP_NEST_LEVEL@2@@@"
    ]
  },
  {
    "cmd": [],
    "name": "building tools/self_dependency (2).run installation",
    "~followup_annotations": [
      "@@@STEP_NEST_LEVEL@1@@@"
    ]
  },
  {
    "cmd": [
      "vpython3",
      "-u",
      "RECIPE_MODULE[recipe_engine::file]/resources/fileutil.py",
      "--json-output",
      "/path/to/tmp/json",
      "ensure-directory",
      "--mode",
      "0777",
      "[START_DIR]/3pp/wd/tools/self_dependency/linux-arm64/2.0.0/out"
    ],
    "env": {
      "CIPD_CACHE_DIR": "[CLEANUP]/tmp_tmp_1",
      "GOARCH": "arm64",
      "GOOS": "linux",
      "_3PP_CIPD_PACKAGE_NAME": "tools/self_dependency",
      "_3PP_PLATFORM": "linux-arm64",
      "_3PP_TOOL_PLATFORM": "linux-amd64",
      "_3PP_VERSION": "2.0.0"
    },
    "infra_step": true,
    "name": "building tools/self_dependency (2).run installation.make output dir",
    "~followup_annotations": [
      "@@@STEP_NEST_LEVEL@2@@@"
    ]
  },
  {
    "cmd": [
      "vpython3",
      "-vpython-spec",
      "RECIPE_REPO[infra]/infra/tools/dockerbuild/standalone.vpython3",
      "-u",
      "-m",
      "infra.tools.dockerbuild",
      "--logs-debug",
      "run",
      "--platform",
      "linux-arm64-py3",
      "--workdir",
      "[START_DIR]/3pp/wd/tools/self_dependency/linux-arm64/2.0.0",
      "--env-prefix",
      "PATH",
      "[START_DIR]/3pp/wd/tools/self_dependency/linux-arm64/2.0.0/tools_prefix",
      "--env-prefix",
      "PATH",
      "[START_DIR]/3pp/wd/tools/self_dependency/linux-arm64/2.0.0/tools_prefix/bin",
      "--env",
      "GOARCH",
      "arm64",
      "--env",
      "GOOS",
      "linux",
      "--env",
      "_3PP_CIPD_PACKAGE_NAME",
      "tools/self_dependency",
      "--env",
      "_3PP_PLATFORM",
      "linux-arm64",
      "--env",
      "_3PP_TOOL_PLATFORM",
      "linux-amd64",
      "--env",
      "_3PP_VERSION",
      "2.0.0",
      "--",
      "bash",
      "[START_DIR]/3pp/wd/tools/self_dependency/linux-arm64/2.0.0/checkout/.3pp/tools/self_dependency/install.sh",
      "[START_DIR]/3pp/wd/tools/self_dependency/linux-arm64/2.0.0/out",
      "[START_DIR]/3pp/wd/tools/self_dependency/linux-arm64/2.0.0/deps_prefix"
    ],
    "cwd": "[START_DIR]/3pp/wd/tools/self_dependency/linux-arm64/2.0.0/checkout",
    "env": {
      "CIPD_CACHE_DIR": "[CLEANUP]/tmp_tmp_1",
      "GOARCH": "arm64",
      "GOOS": "linux",
      "PYTHONPATH": "RECIPE_REPO[infra]",
      "_3PP_CIPD_PACKAGE_NAME": "tools/self_dependency",
      "_3PP_PLATFORM": "linux-arm64",
      "_3PP_TOOL_PLATFORM": "linux-amd64",
      "_3PP_VERSION": "2.0.0"
    },
    "env_prefixes": {
      "PATH": [
        "[START_DIR]/3pp/wd/tools/self_dependency/linux-arm64/2.0.0/tools_prefix",
        "[START_DIR]/3pp/wd/tools/self_dependency/linux-arm64/2.0.0/tools_prefix/bin"
      ]
    },
    "name": "building tools/self_dependency (2).run installation.install.sh [START_DIR]/3pp/wd/tools/self_dependency/linux-arm64/2.0.0/out [START_DIR]/3pp/wd/tools/self_dependency/linux-arm64/2.0.0/deps_prefix",
    "~followup_annotations": [
      "@@@STEP_NEST_LEVEL@2@@@"
    ]
  },
  {
    "cmd": [
      "vpython3",
      "-u",
      "RECIPE_MODULE[recipe_engine::file]/resources/fileutil.py",
      "--json-output",
      "/path/to/tmp/json",
      "listdir",
      "[START_DIR]/3pp/wd/tools/self_dependency/linux-arm64/2.0.0/out",
      "--recursive"
    ],
    "env": {
      "CIPD_CACHE_DIR": "[CLEANUP]/tmp_tmp_1",
      "GOARCH": "arm64",
      "GOOS": "linux",
      "_3PP_CIPD_PACKAGE_NAME": "tools/self_dependency",
      "_3PP_PLATFORM": "linux-arm64",
      "_3PP_TOOL_PLATFORM": "linux-amd64",
      "_3PP_VERSION": "2.0.0"
    },
    "infra_step": true,
    "name": "building tools/self_dependency (2).List files to be packaged",
    "~followup_annotations": [
      "@@@STEP_NEST_LEVEL@1@@@",
      "@@@STEP_LOG_END@listdir@@@"
    ]
  },
  {
    "cmd": [
      "cipd",
      "pkg-build",
      "-pkg-def",
      "{\"data\": [{\"dir\": \".\", \"exclude\": []}], \"install_mode\": \"copy\", \"package\": \"3pp/tools/self_dependency/linux-arm64\", \"root\": \"[START_DIR]/3pp/wd/tools/self_dependency/linux-arm64/2.0.0/out\"}",
      "-out",
      "[CLEANUP]/tmp_tmp_5",
      "-hash-algo",
      "sha256",
      "-json-output",
      "/path/to/tmp/json"
    ],
    "env": {
      "CIPD_CACHE_DIR": "[CLEANUP]/tmp_tmp_1",
      "GOARCH": "arm64",
      "GOOS": "linux",
      "_3PP_CIPD_PACKAGE_NAME": "tools/self_dependency",
      "_3PP_PLATFORM": "linux-arm64",
      "_3PP_TOOL_PLATFORM": "linux-amd64",
      "_3PP_VERSION": "2.0.0"
    },
    "name": "building tools/self_dependency (2).build 3pp/tools/self_dependency/linux-arm64",
    "~followup_annotations": [
      "@@@STEP_NEST_LEVEL@1@@@",
      "@@@STEP_LOG_LINE@json.output@{@@@",
      "@@@STEP_LOG_LINE@json.output@  \"result\": {@@@",
      "@@@STEP_LOG_LINE@json.output@    \"instance_id\": \"40-chars-fake-of-the-package-instance_id\", @@@",
      "@@@STEP_LOG_LINE@json.output@    \"package\": \"3pp/tools/self_dependency/linux-arm64\"@@@",
      "@@@STEP_LOG_LINE@json.output@  }@@@",
      "@@@STEP_LOG_LINE@json.output@}@@@",
      "@@@STEP_LOG_END@json.output@@@"
    ]
  },
  {
    "cmd": [
      "vpython3",
      "-u",
      "RECIPE_MODULE[recipe_engine::file]/resources/fileutil.py",
      "--json-output",
      "/path/to/tmp/json",
      "ensure-directory",
      "--mode",
      "0777",
      "[CACHE]/3pp_cipd/3pp/tools/self_dependency/linux-arm64"
    ],
    "env": {
      "CIPD_CACHE_DIR": "[CLEANUP]/tmp_tmp_1",
      "GOARCH": "arm64",
      "GOOS": "linux",
      "_3PP_CIPD_PACKAGE_NAME": "tools/self_dependency",
      "_3PP_PLATFORM": "linux-arm64",
      "_3PP_TOOL_PLATFORM": "linux-amd64",
      "_3PP_VERSION": "2.0.0"
    },
    "infra_step": true,
    "name": "building tools/self_dependency (2).ensure cipd pkg cache exists",
    "~followup_annotations": [
      "@@@STEP_NEST_LEVEL@1@@@"
    ]
  },
  {
    "cmd": [
      "vpython3",
      "-u",
      "RECIPE_MODULE[recipe_engine::file]/resources/fileutil.py",
      "--json-output",
      "/path/to/tmp/json",
      "move",
      "[CLEANUP]/tmp_tmp_5",
      "[CACHE]/3pp_cipd/3pp/tools/self_dependency/linux-arm64/40-chars-fake-of-the-package-instance_id"
    ],
    "env": {
      "CIPD_CACHE_DIR": "[CLEANUP]/tmp_tmp_1",
      "GOARCH": "arm64",
      "GOOS": "linux",
      "_3PP_CIPD_PACKAGE_NAME": "tools/self_dependency",
      "_3PP_PLATFORM": "linux-arm64",
      "_3PP_TOOL_PLATFORM": "linux-amd64",
      "_3PP_VERSION": "2.0.0"
    },
    "infra_step": true,
    "name": "building tools/self_dependency (2).mv built cipd pkg to cache",
    "~followup_annotations": [
      "@@@STEP_NEST_LEVEL@1@@@"
    ]
  },
  {
    "cmd": [],
    "name": "building tools/self_dependency (2).do upload",
    "~followup_annotations": [
      "@@@STEP_NEST_LEVEL@1@@@",
      "@@@STEP_LINK@40-chars-fake-of-the-package-instance_id@https://chrome-infra-packages.appspot.com/p/3pp/tools/self_dependency/linux-arm64/+/40-chars-fake-of-the-package-instance_id@@@"
    ]
  },
  {
    "cmd": [
      "cipd",
      "describe",
      "3pp/tools/self_dependency/linux-arm64",
      "-version",
      "version:2@2.0.0",
      "-json-output",
      "/path/to/tmp/json"
    ],
    "env": {
      "CIPD_CACHE_DIR": "[CLEANUP]/tmp_tmp_1",
      "GOARCH": "arm64",
      "GOOS": "linux",
      "_3PP_CIPD_PACKAGE_NAME": "tools/self_dependency",
      "_3PP_PLATFORM": "linux-arm64",
      "_3PP_TOOL_PLATFORM": "linux-amd64",
      "_3PP_VERSION": "2.0.0"
    },
    "name": "building tools/self_dependency (2).do upload.cipd describe 3pp/tools/self_dependency/linux-arm64",
    "~followup_annotations": [
      "@@@STEP_NEST_LEVEL@2@@@",
      "@@@STEP_TEXT@tag 'version:2@2.0.0' not found@@@",
      "@@@STEP_LOG_LINE@json.output@{@@@",
      "@@@STEP_LOG_LINE@json.output@  \"error\": \"no such tag\", @@@",
      "@@@STEP_LOG_LINE@json.output@  \"result\": null@@@",
      "@@@STEP_LOG_LINE@json.output@}@@@",
      "@@@STEP_LOG_END@json.output@@@"
    ]
  },
  {
    "cmd": [
      "cipd",
      "pkg-register",
      "[CACHE]/3pp_cipd/3pp/tools/self_dependency/linux-arm64/40-chars-fake-of-the-package-instance_id",
      "-ref",
      "latest",
      "-tag",
      "3pp_ecosystem_hash:5428f29eb8e0873b4b5fd4ad30843f6b867b8ca49f9f22caaab8222bc4ef8841",
      "-tag",
      "version:2@2.0.0",
      "-json-output",
      "/path/to/tmp/json"
    ],
    "env": {
      "CIPD_CACHE_DIR": "[CLEANUP]/tmp_tmp_1",
      "GOARCH": "arm64",
      "GOOS": "linux",
      "_3PP_CIPD_PACKAGE_NAME": "tools/self_dependency",
      "_3PP_PLATFORM": "linux-arm64",
      "_3PP_TOOL_PLATFORM": "linux-amd64",
      "_3PP_VERSION": "2.0.0"
    },
    "name": "building tools/self_dependency (2).do upload.register 3pp/tools/self_dependency/linux-arm64",
    "~followup_annotations": [
      "@@@STEP_NEST_LEVEL@2@@@",
      "@@@STEP_LOG_LINE@json.output@{@@@",
      "@@@STEP_LOG_LINE@json.output@  \"result\": {@@@",
      "@@@STEP_LOG_LINE@json.output@    \"instance_id\": \"40-chars-fake-of-the-package-instance_id\", @@@",
      "@@@STEP_LOG_LINE@json.output@    \"package\": \"3pp/tools/self_dependency/linux-arm64\"@@@",
      "@@@STEP_LOG_LINE@json.output@  }@@@",
      "@@@STEP_LOG_LINE@json.output@}@@@",
      "@@@STEP_LOG_END@json.output@@@",
      "@@@STEP_LINK@3pp/tools/self_dependency/linux-arm64@https://chrome-infra-packages.appspot.com/p/3pp/tools/self_dependency/linux-arm64/+/40-chars-fake-of-the-package-instance_id@@@"
    ]
  },
  {
    "cmd": [
      "vpython3",
      "-u",
      "RECIPE_MODULE[recipe_engine::file]/resources/fileutil.py",
      "--json-output",
      "/path/to/tmp/json",
      "file_hash",
      "[CACHE]/3pp_cipd/3pp/tools/self_dependency/linux-arm64/40-chars-fake-of-the-package-instance_id"
    ],
    "env": {
      "CIPD_CACHE_DIR": "[CLEANUP]/tmp_tmp_1",
      "GOARCH": "arm64",
      "GOOS": "linux",
      "_3PP_CIPD_PACKAGE_NAME": "tools/self_dependency",
      "_3PP_PLATFORM": "linux-arm64",
      "_3PP_TOOL_PLATFORM": "linux-amd64",
      "_3PP_VERSION": "2.0.0"
    },
    "infra_step": true,
    "name": "building tools/self_dependency (2).do upload.Compute file hash",
    "~followup_annotations": [
      "@@@STEP_NEST_LEVEL@2@@@",
      "@@@STEP_TEXT@Hash calculated: deadbeef@@@"
    ]
  },
  {
    "cmd": [
      "[START_DIR]/reporter/snoopy_broker",
      "-report-cipd",
      "-digest",
      "deadbeef",
      "-pkg-name",
      "3pp/tools/self_dependency/linux-arm64",
      "-iid",
      "40-chars-fake-of-the-package-instance_id"
    ],
    "env": {
      "CIPD_CACHE_DIR": "[CLEANUP]/tmp_tmp_1",
      "GOARCH": "arm64",
      "GOOS": "linux",
      "_3PP_CIPD_PACKAGE_NAME": "tools/self_dependency",
      "_3PP_PLATFORM": "linux-arm64",
      "_3PP_TOOL_PLATFORM": "linux-amd64",
      "_3PP_VERSION": "2.0.0"
    },
    "name": "building tools/self_dependency (2).do upload.snoop: report_cipd",
    "~followup_annotations": [
      "@@@STEP_NEST_LEVEL@2@@@"
    ]
  },
  {
    "cmd": [],
    "name": "compute build plan (2)"
  },
  {
    "name": "$result"
  }
]